…
\[146.952 + 60.214 \times \text{EDUC}\]

Model diagnostics

The Bayesian model specification assumes that the errors are normally distributed with a constant variance and that the mean expected weekly wages is linear in IQ. We can check these assumption by examining the distribution of the residuals for the model.

In order to do so we will use predicted values, residuals, and standardized residuals of the model we fit earlier. The augment function in the broom package is going to come in handy here as it takes in a model object (the output of an lm) and returns a data frame with columns correspinding to variables in the model as well as predicted values (.fitted), residuals (.resid), and standardized residuals (.std.resid), along with a few others.

m_wage_iq_aug <- augment(m_wage_iq)
m_wage_iq_aug

## # A tibble: 935 x 9
##     wage    iq .fitted .se.fit .resid    .hat .sigma    .cooksd .std.resid
##  * <int> <int>   <dbl>   <dbl>  <dbl>   <dbl>  <dbl>      <dbl>      <dbl>
##  1   769    93    889.    14.4 -120.  0.00139   385. 0.0000682     -0.313 
##  2   808   119   1105.    19.4 -297.  0.00255   385. 0.000765      -0.773 
##  3   825   108   1014.    13.8 -189.  0.00128   385. 0.000155      -0.491 
##  4   650    96    914.    13.3 -264.  0.00120   385. 0.000284      -0.687 
##  5   562    74    731.    26.1 -169.  0.00459   385. 0.000449      -0.441 
##  6  1400   116   1080.    17.6  320.  0.00209   385. 0.000726       0.832 
##  7   600    91    873.    15.2 -273.  0.00157   385. 0.000395      -0.709 
##  8  1081   114   1064.    16.5   17.5 0.00183   385. 0.00000189     0.0454
##  9  1154   111   1039.    15.0  115.  0.00152   385. 0.0000683      0.300 
## 10  1000    95    906.    13.6   94.2 0.00126   385. 0.0000378      0.245 
## # ... with 925 more rows
…
